{
  "configVersion": 2,
  "packages": [
    {
      "name": "advance_pdf_viewer",
      "rootUri": "file:///home/mdali/Tools/flutter/.pub-cache/hosted/pub.dartlang.org/advance_pdf_viewer-2.0.1",
      "packageUri": "lib/",
      "languageVersion": "2.12"
    },
    {
      "name": "archive",
      "rootUri": "file:///home/mdali/Tools/flutter/.pub-cache/hosted/pub.dartlang.org/archive-3.3.0",
      "packageUri": "lib/",
      "languageVersion": "2.12"
    },
    {
      "name": "async",
      "rootUri": "file:///home/mdali/Tools/flutter/.pub-cache/hosted/pub.dartlang.org/async-2.8.1",
      "packageUri": "lib/",
      "languageVersion": "2.12"
    },
    {
      "name": "barcode",
      "rootUri": "file:///home/mdali/Tools/flutter/.pub-cache/hosted/pub.dartlang.org/barcode-2.2.0",
      "packageUri": "lib/",
      "languageVersion": "2.12"
    },
    {
      "name": "boolean_selector",
      "rootUri": "file:///home/mdali/Tools/flutter/.pub-cache/hosted/pub.dartlang.org/boolean_selector-2.1.0",
      "packageUri": "lib/",
      "languageVersion": "2.12"
    },
    {
      "name": "characters",
      "rootUri": "file:///home/mdali/Tools/flutter/.pub-cache/hosted/pub.dartlang.org/characters-1.1.0",
      "packageUri": "lib/",
      "languageVersion": "2.12"
    },
    {
      "name": "charcode",
      "rootUri": "file:///home/mdali/Tools/flutter/.pub-cache/hosted/pub.dartlang.org/charcode-1.3.1",
      "packageUri": "lib/",
      "languageVersion": "2.12"
    },
    {
      "name": "charts_common",
      "rootUri": "file:///home/mdali/Tools/flutter/.pub-cache/hosted/pub.dartlang.org/charts_common-0.12.0",
      "packageUri": "lib/",
      "languageVersion": "2.12"
    },
    {
      "name": "charts_flutter",
      "rootUri": "file:///home/mdali/Tools/flutter/.pub-cache/hosted/pub.dartlang.org/charts_flutter-0.12.0",
      "packageUri": "lib/",
      "languageVersion": "2.12"
    },
    {
      "name": "clock",
      "rootUri": "file:///home/mdali/Tools/flutter/.pub-cache/hosted/pub.dartlang.org/clock-1.1.0",
      "packageUri": "lib/",
      "languageVersion": "2.12"
    },
    {
      "name": "collection",
      "rootUri": "file:///home/mdali/Tools/flutter/.pub-cache/hosted/pub.dartlang.org/collection-1.15.0",
      "packageUri": "lib/",
      "languageVersion": "2.12"
    },
    {
      "name": "convert",
      "rootUri": "file:///home/mdali/Tools/flutter/.pub-cache/hosted/pub.dartlang.org/convert-3.0.1",
      "packageUri": "lib/",
      "languageVersion": "2.12"
    },
    {
      "name": "cross_file",
      "rootUri": "file:///home/mdali/Tools/flutter/.pub-cache/hosted/pub.dartlang.org/cross_file-0.3.2",
      "packageUri": "lib/",
      "languageVersion": "2.12"
    },
    {
      "name": "crypto",
      "rootUri": "file:///home/mdali/Tools/flutter/.pub-cache/hosted/pub.dartlang.org/crypto-3.0.1",
      "packageUri": "lib/",
      "languageVersion": "2.12"
    },
    {
      "name": "cupertino_icons",
      "rootUri": "file:///home/mdali/Tools/flutter/.pub-cache/hosted/pub.dartlang.org/cupertino_icons-1.0.4",
      "packageUri": "lib/",
      "languageVersion": "2.12"
    },
    {
      "name": "d_chart",
      "rootUri": "file:///home/mdali/Tools/flutter/.pub-cache/hosted/pub.dartlang.org/d_chart-0.0.4",
      "packageUri": "lib/",
      "languageVersion": "2.12"
    },
    {
      "name": "dio",
      "rootUri": "file:///home/mdali/Tools/flutter/.pub-cache/hosted/pub.dartlang.org/dio-4.0.6",
      "packageUri": "lib/",
      "languageVersion": "2.12"
    },
    {
      "name": "document_scanner_flutter",
      "rootUri": "../../",
      "packageUri": "lib/",
      "languageVersion": "2.12"
    },
    {
      "name": "email_validator",
      "rootUri": "file:///home/mdali/Tools/flutter/.pub-cache/hosted/pub.dartlang.org/email_validator-1.0.6",
      "packageUri": "lib/",
      "languageVersion": "1.24"
    },
    {
      "name": "fake_async",
      "rootUri": "file:///home/mdali/Tools/flutter/.pub-cache/hosted/pub.dartlang.org/fake_async-1.2.0",
      "packageUri": "lib/",
      "languageVersion": "2.12"
    },
    {
      "name": "ffi",
      "rootUri": "file:///home/mdali/Tools/flutter/.pub-cache/hosted/pub.dartlang.org/ffi-1.1.2",
      "packageUri": "lib/",
      "languageVersion": "2.12"
    },
    {
      "name": "file",
      "rootUri": "file:///home/mdali/Tools/flutter/.pub-cache/hosted/pub.dartlang.org/file-6.1.2",
      "packageUri": "lib/",
      "languageVersion": "2.12"
    },
    {
      "name": "file_picker",
      "rootUri": "file:///home/mdali/Tools/flutter/.pub-cache/hosted/pub.dartlang.org/file_picker-3.0.4",
      "packageUri": "lib/",
      "languageVersion": "2.12"
    },
    {
      "name": "flutter",
      "rootUri": "file:///home/mdali/Tools/flutter/packages/flutter",
      "packageUri": "lib/",
      "languageVersion": "2.12"
    },
    {
      "name": "flutter_cache_manager",
      "rootUri": "file:///home/mdali/Tools/flutter/.pub-cache/hosted/pub.dartlang.org/flutter_cache_manager-3.3.0",
      "packageUri": "lib/",
      "languageVersion": "2.12"
    },
    {
      "name": "flutter_easyloading",
      "rootUri": "file:///home/mdali/Tools/flutter/.pub-cache/hosted/pub.dartlang.org/flutter_easyloading-3.0.3",
      "packageUri": "lib/",
      "languageVersion": "2.12"
    },
    {
      "name": "flutter_plugin_android_lifecycle",
      "rootUri": "file:///home/mdali/Tools/flutter/.pub-cache/hosted/pub.dartlang.org/flutter_plugin_android_lifecycle-2.0.5",
      "packageUri": "lib/",
      "languageVersion": "2.12"
    },
    {
      "name": "flutter_secure_storage",
      "rootUri": "file:///home/mdali/Tools/flutter/.pub-cache/hosted/pub.dartlang.org/flutter_secure_storage-5.0.2",
      "packageUri": "lib/",
      "languageVersion": "2.12"
    },
    {
      "name": "flutter_secure_storage_linux",
      "rootUri": "file:///home/mdali/Tools/flutter/.pub-cache/hosted/pub.dartlang.org/flutter_secure_storage_linux-1.1.0",
      "packageUri": "lib/",
      "languageVersion": "2.12"
    },
    {
      "name": "flutter_secure_storage_macos",
      "rootUri": "file:///home/mdali/Tools/flutter/.pub-cache/hosted/pub.dartlang.org/flutter_secure_storage_macos-1.1.0",
      "packageUri": "lib/",
      "languageVersion": "2.12"
    },
    {
      "name": "flutter_secure_storage_platform_interface",
      "rootUri": "file:///home/mdali/Tools/flutter/.pub-cache/hosted/pub.dartlang.org/flutter_secure_storage_platform_interface-1.0.0",
      "packageUri": "lib/",
      "languageVersion": "2.12"
    },
    {
      "name": "flutter_secure_storage_web",
      "rootUri": "file:///home/mdali/Tools/flutter/.pub-cache/hosted/pub.dartlang.org/flutter_secure_storage_web-1.0.2",
      "packageUri": "lib/",
      "languageVersion": "2.12"
    },
    {
      "name": "flutter_secure_storage_windows",
      "rootUri": "file:///home/mdali/Tools/flutter/.pub-cache/hosted/pub.dartlang.org/flutter_secure_storage_windows-1.1.2",
      "packageUri": "lib/",
      "languageVersion": "2.12"
    },
    {
      "name": "flutter_spinkit",
      "rootUri": "file:///home/mdali/Tools/flutter/.pub-cache/hosted/pub.dartlang.org/flutter_spinkit-5.1.0",
      "packageUri": "lib/",
      "languageVersion": "2.12"
    },
    {
      "name": "flutter_test",
      "rootUri": "file:///home/mdali/Tools/flutter/packages/flutter_test",
      "packageUri": "lib/",
      "languageVersion": "2.12"
    },
    {
      "name": "flutter_web_plugins",
      "rootUri": "file:///home/mdali/Tools/flutter/packages/flutter_web_plugins",
      "packageUri": "lib/",
      "languageVersion": "2.12"
    },
    {
      "name": "font_awesome_flutter",
      "rootUri": "file:///home/mdali/Tools/flutter/.pub-cache/hosted/pub.dartlang.org/font_awesome_flutter-9.2.0",
      "packageUri": "lib/",
      "languageVersion": "2.12"
    },
    {
      "name": "hexcolor",
      "rootUri": "file:///home/mdali/Tools/flutter/.pub-cache/hosted/pub.dartlang.org/hexcolor-2.0.5",
      "packageUri": "lib/",
      "languageVersion": "2.12"
    },
    {
      "name": "http",
      "rootUri": "file:///home/mdali/Tools/flutter/.pub-cache/hosted/pub.dartlang.org/http-0.13.4",
      "packageUri": "lib/",
      "languageVersion": "2.14"
    },
    {
      "name": "http_parser",
      "rootUri": "file:///home/mdali/Tools/flutter/.pub-cache/hosted/pub.dartlang.org/http_parser-4.0.0",
      "packageUri": "lib/",
      "languageVersion": "2.12"
    },
    {
      "name": "image",
      "rootUri": "file:///home/mdali/Tools/flutter/.pub-cache/hosted/pub.dartlang.org/image-3.1.3",
      "packageUri": "lib/",
      "languageVersion": "2.12"
    },
    {
      "name": "image_picker",
      "rootUri": "file:///home/mdali/Tools/flutter/.pub-cache/hosted/pub.dartlang.org/image_picker-0.8.5",
      "packageUri": "lib/",
      "languageVersion": "2.14"
    },
    {
      "name": "image_picker_android",
      "rootUri": "file:///home/mdali/Tools/flutter/.pub-cache/hosted/pub.dartlang.org/image_picker_android-0.8.4+11",
      "packageUri": "lib/",
      "languageVersion": "2.14"
    },
    {
      "name": "image_picker_for_web",
      "rootUri": "file:///home/mdali/Tools/flutter/.pub-cache/hosted/pub.dartlang.org/image_picker_for_web-2.1.6",
      "packageUri": "lib/",
      "languageVersion": "2.12"
    },
    {
      "name": "image_picker_ios",
      "rootUri": "file:///home/mdali/Tools/flutter/.pub-cache/hosted/pub.dartlang.org/image_picker_ios-0.8.4+11",
      "packageUri": "lib/",
      "languageVersion": "2.14"
    },
    {
      "name": "image_picker_platform_interface",
      "rootUri": "file:///home/mdali/Tools/flutter/.pub-cache/hosted/pub.dartlang.org/image_picker_platform_interface-2.4.4",
      "packageUri": "lib/",
      "languageVersion": "2.12"
    },
    {
      "name": "infinite_listview",
      "rootUri": "file:///home/mdali/Tools/flutter/.pub-cache/hosted/pub.dartlang.org/infinite_listview-1.1.0",
      "packageUri": "lib/",
      "languageVersion": "2.12"
    },
    {
      "name": "intl",
      "rootUri": "file:///home/mdali/Tools/flutter/.pub-cache/hosted/pub.dartlang.org/intl-0.17.0",
      "packageUri": "lib/",
      "languageVersion": "2.12"
    },
    {
      "name": "js",
      "rootUri": "file:///home/mdali/Tools/flutter/.pub-cache/hosted/pub.dartlang.org/js-0.6.3",
      "packageUri": "lib/",
      "languageVersion": "2.12"
    },
    {
      "name": "logging",
      "rootUri": "file:///home/mdali/Tools/flutter/.pub-cache/hosted/pub.dartlang.org/logging-1.0.2",
      "packageUri": "lib/",
      "languageVersion": "2.12"
    },
    {
      "name": "matcher",
      "rootUri": "file:///home/mdali/Tools/flutter/.pub-cache/hosted/pub.dartlang.org/matcher-0.12.10",
      "packageUri": "lib/",
      "languageVersion": "2.12"
    },
    {
      "name": "meta",
      "rootUri": "file:///home/mdali/Tools/flutter/.pub-cache/hosted/pub.dartlang.org/meta-1.7.0",
      "packageUri": "lib/",
      "languageVersion": "2.12"
    },
    {
      "name": "numberpicker",
      "rootUri": "file:///home/mdali/Tools/flutter/.pub-cache/hosted/pub.dartlang.org/numberpicker-2.1.1",
      "packageUri": "lib/",
      "languageVersion": "2.12"
    },
    {
      "name": "otp_text_field",
      "rootUri": "file:///home/mdali/Tools/flutter/.pub-cache/hosted/pub.dartlang.org/otp_text_field-1.1.2",
      "packageUri": "lib/",
      "languageVersion": "2.12"
    },
    {
      "name": "path",
      "rootUri": "file:///home/mdali/Tools/flutter/.pub-cache/hosted/pub.dartlang.org/path-1.8.0",
      "packageUri": "lib/",
      "languageVersion": "2.12"
    },
    {
      "name": "path_parsing",
      "rootUri": "file:///home/mdali/Tools/flutter/.pub-cache/hosted/pub.dartlang.org/path_parsing-1.0.0",
      "packageUri": "lib/",
      "languageVersion": "2.12"
    },
    {
      "name": "path_provider",
      "rootUri": "file:///home/mdali/Tools/flutter/.pub-cache/hosted/pub.dartlang.org/path_provider-2.0.9",
      "packageUri": "lib/",
      "languageVersion": "2.14"
    },
    {
      "name": "path_provider_android",
      "rootUri": "file:///home/mdali/Tools/flutter/.pub-cache/hosted/pub.dartlang.org/path_provider_android-2.0.11",
      "packageUri": "lib/",
      "languageVersion": "2.14"
    },
    {
      "name": "path_provider_ios",
      "rootUri": "file:///home/mdali/Tools/flutter/.pub-cache/hosted/pub.dartlang.org/path_provider_ios-2.0.7",
      "packageUri": "lib/",
      "languageVersion": "2.14"
    },
    {
      "name": "path_provider_linux",
      "rootUri": "file:///home/mdali/Tools/flutter/.pub-cache/hosted/pub.dartlang.org/path_provider_linux-2.1.5",
      "packageUri": "lib/",
      "languageVersion": "2.12"
    },
    {
      "name": "path_provider_macos",
      "rootUri": "file:///home/mdali/Tools/flutter/.pub-cache/hosted/pub.dartlang.org/path_provider_macos-2.0.5",
      "packageUri": "lib/",
      "languageVersion": "2.12"
    },
    {
      "name": "path_provider_platform_interface",
      "rootUri": "file:///home/mdali/Tools/flutter/.pub-cache/hosted/pub.dartlang.org/path_provider_platform_interface-2.0.3",
      "packageUri": "lib/",
      "languageVersion": "2.12"
    },
    {
      "name": "path_provider_windows",
      "rootUri": "file:///home/mdali/Tools/flutter/.pub-cache/hosted/pub.dartlang.org/path_provider_windows-2.0.5",
      "packageUri": "lib/",
      "languageVersion": "2.12"
    },
    {
      "name": "pdf",
      "rootUri": "file:///home/mdali/Tools/flutter/.pub-cache/hosted/pub.dartlang.org/pdf-3.7.4",
      "packageUri": "lib/",
      "languageVersion": "2.12"
    },
    {
      "name": "pedantic",
      "rootUri": "file:///home/mdali/Tools/flutter/.pub-cache/hosted/pub.dartlang.org/pedantic-1.11.1",
      "packageUri": "lib/",
      "languageVersion": "2.12"
    },
    {
      "name": "petitparser",
      "rootUri": "file:///home/mdali/Tools/flutter/.pub-cache/hosted/pub.dartlang.org/petitparser-4.4.0",
      "packageUri": "lib/",
      "languageVersion": "2.14"
    },
    {
      "name": "photo_view",
      "rootUri": "file:///home/mdali/Tools/flutter/.pub-cache/hosted/pub.dartlang.org/photo_view-0.12.0",
      "packageUri": "lib/",
      "languageVersion": "2.12"
    },
    {
      "name": "pie_chart",
      "rootUri": "file:///home/mdali/Tools/flutter/.pub-cache/hosted/pub.dartlang.org/pie_chart-5.3.1",
      "packageUri": "lib/",
      "languageVersion": "2.12"
    },
    {
      "name": "platform",
      "rootUri": "file:///home/mdali/Tools/flutter/.pub-cache/hosted/pub.dartlang.org/platform-3.1.0",
      "packageUri": "lib/",
      "languageVersion": "2.12"
    },
    {
      "name": "plugin_platform_interface",
      "rootUri": "file:///home/mdali/Tools/flutter/.pub-cache/hosted/pub.dartlang.org/plugin_platform_interface-2.1.2",
      "packageUri": "lib/",
      "languageVersion": "2.12"
    },
    {
      "name": "printing",
      "rootUri": "file:///home/mdali/Tools/flutter/.pub-cache/hosted/pub.dartlang.org/printing-5.8.0",
      "packageUri": "lib/",
      "languageVersion": "2.12"
    },
    {
      "name": "process",
      "rootUri": "file:///home/mdali/Tools/flutter/.pub-cache/hosted/pub.dartlang.org/process-4.2.4",
      "packageUri": "lib/",
      "languageVersion": "2.14"
    },
    {
      "name": "qr",
      "rootUri": "file:///home/mdali/Tools/flutter/.pub-cache/hosted/pub.dartlang.org/qr-3.0.0",
      "packageUri": "lib/",
      "languageVersion": "2.13"
    },
    {
      "name": "rxdart",
      "rootUri": "file:///home/mdali/Tools/flutter/.pub-cache/hosted/pub.dartlang.org/rxdart-0.27.3",
      "packageUri": "lib/",
      "languageVersion": "2.12"
    },
    {
      "name": "shared_preferences",
      "rootUri": "file:///home/mdali/Tools/flutter/.pub-cache/hosted/pub.dartlang.org/shared_preferences-2.0.15",
      "packageUri": "lib/",
      "languageVersion": "2.14"
    },
    {
      "name": "shared_preferences_android",
      "rootUri": "file:///home/mdali/Tools/flutter/.pub-cache/hosted/pub.dartlang.org/shared_preferences_android-2.0.10",
      "packageUri": "lib/",
      "languageVersion": "2.14"
    },
    {
      "name": "shared_preferences_ios",
      "rootUri": "file:///home/mdali/Tools/flutter/.pub-cache/hosted/pub.dartlang.org/shared_preferences_ios-2.0.9",
      "packageUri": "lib/",
      "languageVersion": "2.14"
    },
    {
      "name": "shared_preferences_linux",
      "rootUri": "file:///home/mdali/Tools/flutter/.pub-cache/hosted/pub.dartlang.org/shared_preferences_linux-2.1.1",
      "packageUri": "lib/",
      "languageVersion": "2.12"
    },
    {
      "name": "shared_preferences_macos",
      "rootUri": "file:///home/mdali/Tools/flutter/.pub-cache/hosted/pub.dartlang.org/shared_preferences_macos-2.0.4",
      "packageUri": "lib/",
      "languageVersion": "2.12"
    },
    {
      "name": "shared_preferences_platform_interface",
      "rootUri": "file:///home/mdali/Tools/flutter/.pub-cache/hosted/pub.dartlang.org/shared_preferences_platform_interface-2.0.0",
      "packageUri": "lib/",
      "languageVersion": "2.12"
    },
    {
      "name": "shared_preferences_web",
      "rootUri": "file:///home/mdali/Tools/flutter/.pub-cache/hosted/pub.dartlang.org/shared_preferences_web-2.0.4",
      "packageUri": "lib/",
      "languageVersion": "2.12"
    },
    {
      "name": "shared_preferences_windows",
      "rootUri": "file:///home/mdali/Tools/flutter/.pub-cache/hosted/pub.dartlang.org/shared_preferences_windows-2.1.1",
      "packageUri": "lib/",
      "languageVersion": "2.12"
    },
    {
      "name": "sky_engine",
      "rootUri": "file:///home/mdali/Tools/flutter/bin/cache/pkg/sky_engine",
      "packageUri": "lib/",
      "languageVersion": "2.12"
    },
    {
      "name": "source_span",
      "rootUri": "file:///home/mdali/Tools/flutter/.pub-cache/hosted/pub.dartlang.org/source_span-1.8.1",
      "packageUri": "lib/",
      "languageVersion": "2.12"
    },
    {
      "name": "sqflite",
      "rootUri": "file:///home/mdali/Tools/flutter/.pub-cache/hosted/pub.dartlang.org/sqflite-2.0.2",
      "packageUri": "lib/",
      "languageVersion": "2.12"
    },
    {
      "name": "sqflite_common",
      "rootUri": "file:///home/mdali/Tools/flutter/.pub-cache/hosted/pub.dartlang.org/sqflite_common-2.0.1+1",
      "packageUri": "lib/",
      "languageVersion": "2.12"
    },
    {
      "name": "stack_trace",
      "rootUri": "file:///home/mdali/Tools/flutter/.pub-cache/hosted/pub.dartlang.org/stack_trace-1.10.0",
      "packageUri": "lib/",
      "languageVersion": "2.12"
    },
    {
      "name": "stream_channel",
      "rootUri": "file:///home/mdali/Tools/flutter/.pub-cache/hosted/pub.dartlang.org/stream_channel-2.1.0",
      "packageUri": "lib/",
      "languageVersion": "2.12"
    },
    {
      "name": "string_scanner",
      "rootUri": "file:///home/mdali/Tools/flutter/.pub-cache/hosted/pub.dartlang.org/string_scanner-1.1.0",
      "packageUri": "lib/",
      "languageVersion": "2.12"
    },
    {
      "name": "syncfusion_flutter_charts",
      "rootUri": "file:///home/mdali/Tools/flutter/.pub-cache/hosted/pub.dartlang.org/syncfusion_flutter_charts-20.1.58+1",
      "packageUri": "lib/",
      "languageVersion": "2.12"
    },
    {
      "name": "syncfusion_flutter_core",
      "rootUri": "file:///home/mdali/Tools/flutter/.pub-cache/hosted/pub.dartlang.org/syncfusion_flutter_core-20.1.58+1",
      "packageUri": "lib/",
      "languageVersion": "2.12"
    },
    {
      "name": "syncfusion_flutter_pdf",
      "rootUri": "file:///home/mdali/Tools/flutter/.pub-cache/hosted/pub.dartlang.org/syncfusion_flutter_pdf-20.1.56-beta",
      "packageUri": "lib/",
      "languageVersion": "2.12"
    },
    {
      "name": "syncfusion_flutter_pdfviewer",
      "rootUri": "file:///home/mdali/Tools/flutter/.pub-cache/hosted/pub.dartlang.org/syncfusion_flutter_pdfviewer-20.1.56-beta",
      "packageUri": "lib/",
      "languageVersion": "2.12"
    },
    {
      "name": "syncfusion_pdfviewer_macos",
      "rootUri": "file:///home/mdali/Tools/flutter/.pub-cache/hosted/pub.dartlang.org/syncfusion_pdfviewer_macos-20.1.56-beta",
      "packageUri": "lib/",
      "languageVersion": "2.12"
    },
    {
      "name": "syncfusion_pdfviewer_platform_interface",
      "rootUri": "file:///home/mdali/Tools/flutter/.pub-cache/hosted/pub.dartlang.org/syncfusion_pdfviewer_platform_interface-20.1.56-beta",
      "packageUri": "lib/",
      "languageVersion": "2.12"
    },
    {
      "name": "syncfusion_pdfviewer_web",
      "rootUri": "file:///home/mdali/Tools/flutter/.pub-cache/hosted/pub.dartlang.org/syncfusion_pdfviewer_web-20.1.56-beta",
      "packageUri": "lib/",
      "languageVersion": "2.12"
    },
    {
      "name": "syncfusion_pdfviewer_windows",
      "rootUri": "file:///home/mdali/Tools/flutter/.pub-cache/hosted/pub.dartlang.org/syncfusion_pdfviewer_windows-20.1.56-beta",
      "packageUri": "lib/",
      "languageVersion": "2.12"
    },
    {
      "name": "synchronized",
      "rootUri": "file:///home/mdali/Tools/flutter/.pub-cache/hosted/pub.dartlang.org/synchronized-3.0.0+2",
      "packageUri": "lib/",
      "languageVersion": "2.14"
    },
    {
      "name": "term_glyph",
      "rootUri": "file:///home/mdali/Tools/flutter/.pub-cache/hosted/pub.dartlang.org/term_glyph-1.2.0",
      "packageUri": "lib/",
      "languageVersion": "2.12"
    },
    {
      "name": "test_api",
      "rootUri": "file:///home/mdali/Tools/flutter/.pub-cache/hosted/pub.dartlang.org/test_api-0.4.2",
      "packageUri": "lib/",
      "languageVersion": "2.12"
    },
    {
      "name": "typed_data",
      "rootUri": "file:///home/mdali/Tools/flutter/.pub-cache/hosted/pub.dartlang.org/typed_data-1.3.0",
      "packageUri": "lib/",
      "languageVersion": "2.12"
    },
    {
      "name": "uuid",
      "rootUri": "file:///home/mdali/Tools/flutter/.pub-cache/hosted/pub.dartlang.org/uuid-3.0.6",
      "packageUri": "lib/",
      "languageVersion": "2.12"
    },
    {
      "name": "vector_math",
      "rootUri": "file:///home/mdali/Tools/flutter/.pub-cache/hosted/pub.dartlang.org/vector_math-2.1.0",
      "packageUri": "lib/",
      "languageVersion": "2.12"
    },
    {
      "name": "win32",
      "rootUri": "file:///home/mdali/Tools/flutter/.pub-cache/hosted/pub.dartlang.org/win32-2.3.6",
      "packageUri": "lib/",
      "languageVersion": "2.14"
    },
    {
      "name": "xdg_directories",
      "rootUri": "file:///home/mdali/Tools/flutter/.pub-cache/hosted/pub.dartlang.org/xdg_directories-0.2.0+1",
      "packageUri": "lib/",
      "languageVersion": "2.12"
    },
    {
      "name": "xml",
      "rootUri": "file:///home/mdali/Tools/flutter/.pub-cache/hosted/pub.dartlang.org/xml-5.3.1",
      "packageUri": "lib/",
      "languageVersion": "2.14"
    },
    {
      "name": "document_scanner_flutter_example",
      "rootUri": "../",
      "packageUri": "lib/",
      "languageVersion": "2.12"
    }
  ],
  "generated": "2022-06-01T23:02:56.956697Z",
  "generator": "pub",
  "generatorVersion": "2.14.4"
}
